23

C          2.90935       -0.59839       -1.21328
C          1.40533       -0.59357       -0.90775
N          0.67016       -0.26383       -2.17433
C          1.14437        0.42794        0.21022
H          1.83739        0.25993        1.04580
H          1.36751        1.44391       -0.14330
C         -0.26666        0.36746        0.74739
C         -1.22320        1.31169        0.35042
H         -0.95653        2.11237       -0.33644
C         -2.52995        1.23997        0.83521
H         -3.26578        1.97779        0.52548
C         -2.89142        0.22764        1.72214
H         -3.90788        0.17600        2.10376
C         -1.94682       -0.71369        2.12631
H         -2.22676       -1.49853        2.82453
C         -0.64019       -0.64585        1.64109
H          0.08652       -1.38482        1.97286
O          3.77804       -1.01582       -0.46455
O          3.16814       -0.04720       -2.42849
H          1.11807       -1.60711       -0.60542
H         -0.30011       -0.05297       -1.91419
H          0.58760       -1.13325       -2.71410
H          2.28610        0.21245       -2.79782
